{
    "colonias": [
        {
            "nombre": "LA CALMA",
            "municipio": "Zapopan"
        }, 
        {
            "nombre": "ZAPOPAN",
            "municipio": "Zapopan"
        },
        {
             "municipio": "El Salto",
             "nombre": "CLUB DE GOLF ATLAS"
        }
    ]
}