{"product_list":[
    {
      "type":"poblacion_femenina",
      "products":[
        {
          "name":"producto1",
          "code":"00001",
          "required_per_person_per_week":5
        },
        {
          "name":"producto2",
          "code":"00001",
          "required_per_person_per_week":5
        },
        {
          "name":"producto3",
          "code":"00001",
          "required_per_person_per_week":5
        },
        {
          "name":"producto4",
          "code":"00001",
          "required_per_person_per_week":5
        },
        {
          "name":"producto5",
          "code":"00001",
          "required_per_person_per_week":5
        }
      ]
    },
    {
      "type":"poblacion_masculina",
      "products":[
        {
          "name":"producto1",
          "code":"00001",
          "required_per_person_per_week":5
        },
        {
          "name":"producto2",
          "code":"00001",
          "required_per_person_per_week":5
        },
        {
          "name":"producto3",
          "code":"00001",
          "required_per_person_per_week":5
        },
        {
          "name":"producto4",
          "code":"00001",
          "required_per_person_per_week":5
        },
        {
          "name":"producto5",
          "code":"00001",
          "required_per_person_per_week":5
        }
      ]
    },
    {
      "type":"poblacion_total",
      "products":[
        {
          "name":"producto1",
          "code":"00001",
          "required_per_person_per_week":5
        },
        {
          "name":"producto2",
          "code":"00001",
          "required_per_person_per_week":5
        },
        {
          "name":"producto3",
          "code":"00001",
          "required_per_person_per_week":5
        },
        {
          "name":"producto4",
          "code":"00001",
          "required_per_person_per_week":5
        },
        {
          "name":"producto5",
          "code":"00001",
          "required_per_person_per_week":6
        }
      ]
    }
  ]
}